{
   "$schema": "./room.schema.json",
   "preload": [
      "amForgespring"
   ],
   "background": "below",
   "layers": {
      "below": [
         {
            "barriers": [
               {
                  "position": {
                     "x": 0,
                     "y": 100
                  },
                  "size": {
                     "x": 20,
                     "y": 40
                  }
               },
               {
                  "position": {
                     "x": 20,
                     "y": 100
                  },
                  "size": {
                     "x": 420,
                     "y": -20
                  }
               },
               {
                  "position": {
                     "x": 440,
                     "y": 100
                  },
                  "size": {
                     "x": 20,
                     "y": 80
                  }
               },
               {
                  "position": {
                     "x": 440,
                     "y": 240
                  },
                  "size": {
                     "x": 20,
                     "y": 10
                  }
               },
               {
                  "position": {
                     "x": 440,
                     "y": 250
                  },
                  "size": {
                     "x": -440,
                     "y": 20
                  }
               }
            ],
            "triggers": [
               {
                  "position": {
                     "x": 5,
                     "y": 140
                  },
                  "size": {
                     "x": -20,
                     "y": 110
                  },
                  "name": "teleport",
                  "args": [
                     "f_gazebo",
                     "left",
                     "360",
                     "250"
                  ]
               },
               {
                  "position": {
                     "x": 455,
                     "y": 180
                  },
                  "size": {
                     "x": 20,
                     "y": 60
                  },
                  "name": "teleport",
                  "args": [
                     "f_graveyard",
                     "right",
                     "20",
                     "530"
                  ]
               }
            ]
         }
      ]
   },
   "neighbors": [
      "f_gazebo",
      "f_graveyard"
   ],
   "score": {
      "gain": 0.5,
      "music": "forgespring"
   },
   "region": [
      {
         "x": 160,
         "y": 120
      },
      {
         "x": 300,
         "y": 240
      }
   ]
}